DBQ Prioritization - Ensign College
…
# Shared Data

# Assign risk scores to shared data (yes/no)
shareddata_riskscore_table <- shared_data %>%
  mutate(SharedDataRiskScore = ifelse(is.na(SharedData), 0,
                            ifelse(SharedData == "Yes", 1, 0))) %>%
  select(-SharedData)

# Print the results
print(shareddata_riskscore_table)

# A tibble: 43 × 2
      ID SharedDataRiskScore
   <dbl>               <dbl>
 1     5                   0
 2     6                   0
 3     7                   1
 4     8                   1
 5     9                   0
 6    10                   0
 7    11                   1
 8    12                   0
 9    13                   0
10    14                   1
# ℹ 33 more rows

# DSAs

# Assign risk scores to DSAs (yes/no)
dsas_riskscore_table <- dsas %>%
  mutate(DSAsRiskScore = ifelse(is.na(DSAs), 0,
                            ifelse(DSAs == "Yes", 0, 3))) %>%
  select(-DSAs)

# Print the results
print(dsas_riskscore_table)

# A tibble: 43 × 2
      ID DSAsRiskScore
   <dbl>         <dbl>
 1     5             0
 2     6             0
 3     7             0
 4     8             3
 5     9             0
 6    10             0
 7    11             0
 8    12             0
 9    13             0
10    14             3
# ℹ 33 more rows
…
# Public Facing Websites

# Assign risk scores to public facing websites (yes/no)
publicfacingwebsites_riskscore_table <- public_facing_websites %>%
  mutate(PublicFacingWebsitesRiskScore = ifelse(is.na(PublicFacingWebsites), 0,
                            ifelse(PublicFacingWebsites == "Yes", 2, 0))) %>%
  select(-PublicFacingWebsites)

# Print the results
print(publicfacingwebsites_riskscore_table)

# A tibble: 43 × 2
      ID PublicFacingWebsitesRiskScore
   <dbl>                         <dbl>
 1     5                             0
 2     6                             0
 3     7                             2
 4     8                             0
 5     9                             0
 6    10                             0
 7    11                             0
 8    12                             2
 9    13                             0
10    14                             2
# ℹ 33 more rows

# Privacy Notice

# Assign risk scores to privacy notice (yes/no)
privacynotice_riskscore_table <- privacy_notice %>%
  mutate(PrivacyNoticeRiskScore = ifelse(is.na(PrivacyNotice), 0,
                            ifelse(PrivacyNotice == "Yes", 0, 3))) %>%
  select(-PrivacyNotice)

# Print the results
print(privacynotice_riskscore_table)

# A tibble: 43 × 2
      ID PrivacyNoticeRiskScore
   <dbl>                  <dbl>
 1     5                      0
 2     6                      0
 3     7                      0
 4     8                      0
 5     9                      0
 6    10                      0
 7    11                      0
 8    12                      0
 9    13                      0
10    14                      0
# ℹ 33 more rows

# Cookie Banner

# Assign risk scores to cookie banner (yes/no)
cookiebanner_riskscore_table <- cookie_banner %>%
  mutate(CookieBannerRiskScore = ifelse(is.na(CookieBanner), 0,
                            ifelse(CookieBanner == "Yes", 0, 3))) %>%
  select(-CookieBanner)

# Print the results
print(cookiebanner_riskscore_table)

# A tibble: 43 × 2
      ID CookieBannerRiskScore
   <dbl>                 <dbl>
 1     5                     0
 2     6                     0
 3     7                     0
 4     8                     0
 5     9                     0
 6    10                     0
 7    11                     0
 8    12                     0
 9    13                     0
10    14                     0
# ℹ 33 more rows

# Minor Related Data

# Assign risk scores to minor related data (yes/no)
minorrelateddata_riskscore_table <- minor_related_data %>%
  mutate(MinorRelatedDataRiskScore = ifelse(is.na(MinorRelatedData), 0,
                            ifelse(MinorRelatedData == "Yes", 3, 0))) %>%
  select(-MinorRelatedData)

# Print the results
print(minorrelateddata_riskscore_table)

# A tibble: 43 × 2
      ID MinorRelatedDataRiskScore
   <dbl>                     <dbl>
 1     5                         0
 2     6                         0
 3     7                         0
 4     8                         0
 5     9                         0
 6    10                         0
 7    11                         0
 8    12                         0
 9    13                         0
10    14                         0
# ℹ 33 more rows
…
